%YAML 1.1
%TAG !u! tag:unity3d.com,2011:
--- !u!114 &11400000
MonoBehaviour:
  m_ObjectHideFlags: 0
  m_PrefabParentObject: {fileID: 0}
  m_PrefabInternal: {fileID: 0}
  m_GameObject: {fileID: 0}
  m_Enabled: 1
  m_EditorHideFlags: 0
  m_Script: {fileID: 11500000, guid: a6b194f808b1af6499c93410e504af42, type: 3}
  m_Name: stretchyman-diffuse-pma_Atlas
  m_EditorClassIdentifier: 
  atlasFile: {fileID: 4900000, guid: 492ecfd45cd2de542bc20043b10ee4aa, type: 3}
  materials:
  - {fileID: 2100000, guid: 824cfb62bcbe3db49a3ce6db7e3757d1, type: 2}
