%YAML 1.1
%TAG !u! tag:unity3d.com,2011:
--- !u!21 &2100000
Material:
  serializedVersion: 6
  m_ObjectHideFlags: 0
  m_PrefabParentObject: {fileID: 0}
  m_PrefabInternal: {fileID: 0}
  m_Name: stretchyman-diffuse-pma_Material
  m_Shader: {fileID: 4800000, guid: 2ce511398fb980f41b7d316c51534590, type: 3}
  m_ShaderKeywords: _ALPHAPREMULTIPLY_ON _EMISSION _FIXED_NORMALS _NORMALMAP
  m_LightmapFlags: 5
  m_CustomRenderQueue: 3000
  stringTagMap:
    RenderType: Sprite
  m_SavedProperties:
    serializedVersion: 2
    m_TexEnvs:
    - first:
        name: _BlendTex
      second:
        m_Texture: {fileID: 0}
        m_Scale: {x: 1, y: 1}
        m_Offset: {x: 0, y: 0}
    - first:
        name: _BumpMap
      second:
        m_Texture: {fileID: 2800000, guid: d00f264cbe0cc4a49a54a221ee812855, type: 3}
        m_Scale: {x: 1, y: 1}
        m_Offset: {x: 0, y: 0}
    - first:
        name: _DiffuseRamp
      second:
        m_Texture: {fileID: 0}
        m_Scale: {x: 1, y: 1}
        m_Offset: {x: 0, y: 0}
    - first:
        name: _EmissionMap
      second:
        m_Texture: {fileID: 2800000, guid: 4cad8f072f658544a80ba2b271aec125, type: 3}
        m_Scale: {x: 1, y: 1}
        m_Offset: {x: 0, y: 0}
    - first:
        name: _MainTex
      second:
        m_Texture: {fileID: 2800000, guid: 33f10ea7e20549d40a1c23a1adc3f760, type: 3}
        m_Scale: {x: 1, y: 1}
        m_Offset: {x: 0, y: 0}
    m_Floats:
    - first:
        name: _BlendAmount
      second: 0
    - first:
        name: _BlendMode
      second: 0
    - first:
        name: _Brightness
      second: 1
    - first:
        name: _Cull
      second: 0
    - first:
        name: _Cutoff
      second: 0.1
    - first:
        name: _DstBlend
      second: 10
    - first:
        name: _EmissionPower
      second: 1
    - first:
        name: _Hue
      second: 0
    - first:
        name: _RenderQueue
      second: 0
    - first:
        name: _RimPower
      second: 1.79
    - first:
        name: _Saturation
      second: 1
    - first:
        name: _ShadowAlphaCutoff
      second: 0.1
    - first:
        name: _SrcBlend
      second: 1
    - first:
        name: _ZWrite
      second: 0
    m_Colors:
    - first:
        name: _Color
      second: {r: 1, g: 1, b: 1, a: 1}
    - first:
        name: _EmissionColor
      second: {r: 1, g: 1, b: 1, a: 1}
    - first:
        name: _FixedNormal
      second: {r: 0, g: 0, b: -1, a: 1}
    - first:
        name: _OverlayColor
      second: {r: 0, g: 0, b: 0, a: 0}
    - first:
        name: _RimColor
      second: {r: 1, g: 1, b: 1, a: 1}
