%YAML 1.1
%TAG !u! tag:unity3d.com,2011:
--- !u!114 &11400000
MonoBehaviour:
  m_ObjectHideFlags: 0
  m_PrefabParentObject: {fileID: 0}
  m_PrefabInternal: {fileID: 0}
  m_GameObject: {fileID: 0}
  m_Enabled: 1
  m_EditorHideFlags: 0
  m_Script: {fileID: 11500000, guid: f1b3b4b945939a54ea0b23d3396115fb, type: 3}
  m_Name: spineboy_SkeletonData
  m_EditorClassIdentifier: 
  atlasAssets:
  - {fileID: 11400000, guid: b4b8457d6cb8fec49a40be5b71d79e51, type: 2}
  scale: 0.01
  skeletonJSON: {fileID: 4900000, guid: d43e38db0e34033438474d0c01fd4404, type: 3}
  fromAnimation: []
  toAnimation: []
  duration: []
  defaultMix: 0.1
  controller: {fileID: 0}
