
arara.png
size: 2048,512
format: RGBA8888
filter: Linear,Linear
repeat: none
O
  rotate: false
  xy: 2, 8
  size: 400, 408
  orig: 400, 408
  offset: 0, 0
  index: -1
O in
  rotate: false
  xy: 404, 8
  size: 400, 408
  orig: 400, 408
  offset: 0, 0
  index: -1
arara body
  rotate: false
  xy: 806, 216
  size: 340, 200
  orig: 340, 200
  offset: 0, 0
  index: -1
arara head
  rotate: false
  xy: 806, 2
  size: 260, 212
  orig: 260, 212
  offset: 0, 0
  index: -1
